Working with R Markdown
…
4. Answer the question

R Markdown allows you to answer the question using both the code and
output. So I’ll start with a descriptive sentence or annotation about
what I’m doing and then show the code and the output.

Filter dataset to mass below 250

Smaller_StarWars <- starwars %>%
  filter(starwars$mass < 250)
Smaller_StarWars

## # A tibble: 58 × 14
##    name      height  mass hair_color skin_color eye_color birth_year
##    <chr>      <int> <dbl> <chr>      <chr>      <chr>          <dbl>
##  1 Luke Sky…    172    77 blond      fair       blue            19  
##  2 C-3PO        167    75 <NA>       gold       yellow         112  
##  3 R2-D2         96    32 <NA>       white, bl… red             33  
##  4 Darth Va…    202   136 none       white      yellow          41.9
##  5 Leia Org…    150    49 brown      light      brown           19  
##  6 Owen Lars    178   120 brown, gr… light      blue            52  
##  7 Beru Whi…    165    75 brown      light      blue            47  
##  8 R5-D4         97    32 <NA>       white, red red             NA  
##  9 Biggs Da…    183    84 black      light      brown           24  
## 10 Obi-Wan …    182    77 auburn, w… fair       blue-gray       57  
## # … with 48 more rows, and 7 more variables: sex <chr>,
## #   gender <chr>, homeworld <chr>, species <chr>, films <list>,
## #   vehicles <list>, starships <list>
…
