Using R Studio for Statistics - Working with R Markdown
…
For each question you’ll want to copy and paste the question from your homework into R Markdown. For example, from your quiz.

Use the “Star Wars” data from the tidy verse, use the “pipe” feature to filter the dataset to mass below 250. With the new dataset, create a scatterplot of mass and height.

4. Answer the question

R Markdown allows you to answer the question using both the code and output. So I’ll start with a descriptive sentence or annotation about what I’m doing and then show the code and the output.

Filter dataset to mass below 250

Smaller_StarWars <- starwars %>%
  filter(starwars$mass < 250)
Smaller_StarWars

# A tibble: 58 × 14
   name     height  mass hair_color skin_color eye_color birth_year sex   gender
   <chr>     <int> <dbl> <chr>      <chr>      <chr>          <dbl> <chr> <chr> 
 1 Luke Sk…    172    77 blond      fair       blue            19   male  mascu…
 2 C-3PO       167    75 <NA>       gold       yellow         112   none  mascu…
 3 R2-D2        96    32 <NA>       white, bl… red             33   none  mascu…
 4 Darth V…    202   136 none       white      yellow          41.9 male  mascu…
 5 Leia Or…    150    49 brown      light      brown           19   fema… femin…
 6 Owen La…    178   120 brown, gr… light      blue            52   male  mascu…
 7 Beru Wh…    165    75 brown      light      blue            47   fema… femin…
 8 R5-D4        97    32 <NA>       white, red red             NA   none  mascu…
 9 Biggs D…    183    84 black      light      brown           24   male  mascu…
10 Obi-Wan…    182    77 auburn, w… fair       blue-gray       57   male  mascu…
# ℹ 48 more rows
# ℹ 5 more variables: homeworld <chr>, species <chr>, films <list>,
#   vehicles <list>, starships <list>
…
