ANCOVA – Using R Studio for Statistics
…
The covariate is typically a variable that effects the relationship between the independent variable and the dependent variable, but is not likely to be something that could be manipulated in an experiment. This is often because it is something that is a pre-existing condition or a variable that develops in individuals participants over time.

Revisiting Some Mischief

For the section on the independent t test, we looked at the effect of an invisibility cloak on acts of mischief. The idea was that if you had an invisibility cloak (like the one used by Harry Potter to explore Hogwarts) you might be more inclined to do more types of mischief.

However, a potential covariate would be how mischievous you are more generally. So if you are already someone who is always getting into trouble (pulling pranks, being sent to the principal’s office, often serving detention, etc), you are already more likely to do a lot of mischief before you get access to an invisibility cloak. So an ANCOVA allows for a participant’s previous mischief to be accounted for when exploring the relationship between the primary relationship between the invisibility cloak and mischief. This would help to separate the influence of being mischievous more generally from the effect of the invisibility cloak on mischievous behavior.

Here’s a look at the data.

library(haven)
Invisibility_Baseline <- read_sav("Invisibility Baseline.sav")
Invisibility_Baseline

# A tibble: 80 × 3
   cloak        mischief1 mischief2
   <dbl+lbl>        <dbl>     <dbl>
 1 0 [No Cloak]         4        11
 2 0 [No Cloak]         5         7
 3 0 [No Cloak]         8         8
 4 0 [No Cloak]         6         7
 5 0 [No Cloak]         6        10
 6 0 [No Cloak]         4         7
 7 0 [No Cloak]         3        11
 8 0 [No Cloak]         6         7
 9 0 [No Cloak]         7        11
10 0 [No Cloak]         1         6
# ℹ 70 more rows

In this case, mischief1 is the baseline level of mischief or how often a subject engages in mischievous acts on a regular basis. Baseline data is used in a lot of different situations to refer to how persons perform on a variable in everyday situations. So you might think about a baseline heart rate or a baseline level of religiosity. So prior to any experimental manipulation, baseline gives you the current level of some measure of a variable.

An Example with Puppies

Let’s look at an example using puppies or more specifically using puppies as a form of therapy (Field). Here’s the dataset.

library(haven)
Puppy_love <- read_sav("Puppy Love.sav")
Puppy_love

# A tibble: 30 × 4
   Person Dose        Happiness Puppy_love
    <dbl> <dbl+lbl>       <dbl>      <dbl>
 1      1 1 [Control]         3          4
 2      2 1 [Control]         2          1
 3      3 1 [Control]         5          5
 4      4 1 [Control]         2          1
 5      5 1 [Control]         2          2
 6      6 1 [Control]         2          2
 7      7 1 [Control]         7          7
 8      8 1 [Control]         2          4
 9      9 1 [Control]         4          5
10     10 2 [15 mins]         7          5
# ℹ 20 more rows
…
